Анализ социального, экологического и управленческих секторов
…
Гипотеза H1 подтверждается: средний социальный рейтинг (\(\text{s_score}\)) статистически значимо
растет со временем. Однако, сила этого тренда очень мала, и основная
часть различий в социальном рейтинге зависит не от общего года
наблюдения, а от других, неучтенных в модели факторов.

data_ea_counts <- data_ea |> select('country_of_headquarters', 'e_score', 's_score', 'g_score')
data_ea_counts  

## # A tibble: 1,924 × 4
##    country_of_headquarters e_score s_score g_score
##    <chr>                     <dbl>   <dbl>   <dbl>
##  1 china                      8.33    44.7    28.2
##  2 china                     39.5     54.4    63.2
##  3 china                     39.1     51.6    43.1
##  4 china                     60.3     59.9    38.4
##  5 china                     61.5     66.2    75.4
##  6 china                     55.5     60.3    72.4
##  7 china                     57.2     86.2    89.5
##  8 china                     62.3     88.4    88.1
##  9 china                     59.1     86.5    86.5
## 10 china                     55.9     81.6    91.1
## # ℹ 1,914 more rows
…
